{
    "id": "06402c54-ddde-4026-9cae-3d10c15f1eed",
    "theme": "str",
    "exam": "str",
    "label": "string",
    "test_cases": [
        {
            "test_id": "d1ec657f-61bc-4cc9-bcae-a66c61cbd180-(n)",
            "test_label": "string",
            "argument": "string",
            "solution": "string" 
        },
        {
            "test_id": "4c99c1f3-4010-4db5-8eab-60565946f1d1",
            "test_label": "string",
            "argument": "string",
            "solution": "string"

        }
    ]
}


{
    "code": "print(\"test\")",
    "id": "be18447d-0fa6-4e95-871f-e2f0a6d674f3",
    "lang": "python",
    "result": "",
    "test_results": [
        {
            "test_id": "4c99c1f3-4010-4db5-8eab-60565946f1d1",
            "result": "string", // 正解
            "judgment": "true or false" // あっているかどうか
        },
        {
            "test_id": "d1ec657f-61bc-4cc9-bcae-a66c61cbd180",
            "result": "string",
            "judgment": "true or false"
        },

    ]
}


{
    "label": "string",
    "test_cases": [
        {
            "test_label": "string",
            "argument": "string",
            "solution": "string",
            "test_id": "a9367b04-53a7-4112-b97e-170a94d69803"
        },
        {
            "test_label": "string",
            "argument": "string",
            "solution": "string",
            "test_id": "6dbbb608-74a0-43c2-93d4-3447f1eb78fc"
        }
    ],
    "id": "d39186b4-d583-4843-a42a-69d4fed45c14"
}

{
	"theme": "文字列を連結しよう!!",
    "exam": "適当に問題",
    "label": "string",
    "test_cases": [
        {
            "test_label": "string",
            "argument": "1\n2\n3",
            "solution": "123\n" 
        },
        {
            "test_label": "string",
            "argument": "3\n2\n3",
            "solution": "323\n" 
        },
        {
            "test_label": "string",
            "argument": "4\n2\n3",
            "solution": "423\n" 
        },
        {
            "test_label": "string",
            "argument": "5\n5\n3",
            "solution": "553\n" 
        },
        {
            "test_label": "string",
            "argument": "3\n6\n3",
            "solution": "363\n"
        },
        {
            "test_label": "string",
            "argument": "7\n6\n3",
            "solution": "7634"
        }
    ]
}